<svg xmlns="http://www.w3.org/2000/svg" xmlns:xlink="http://www.w3.org/1999/xlink" width="14.186" height="19.38" viewBox="0 0 14.186 19.38">
  <defs>
    <clipPath id="clip-path">
      <rect width="14.186" height="19.38" fill="none"/>
    </clipPath>
  </defs>
  <g id="Repetição_de_grade_1" data-name="Repetição de grade 1" clip-path="url(#clip-path)">
    <g transform="translate(-626.479 -422.749)">
      <path id="Caminho_6647" data-name="Caminho 6647" d="M1660.853,135.4a3.686,3.686,0,0,0-4.079-.569,3.05,3.05,0,0,1-2.339.222,3.687,3.687,0,0,0-4.331.442c-2.434,1.8-2.213,6.544.569,10.147.854,1.075,1.676,1.865,3.478,1.075a3.171,3.171,0,0,1,2.94.031c.822.474,1.864.6,2.971-.727s4.646-6.48.791-10.622" transform="translate(-1021.943 295.054)" fill="#175732"/>
      <path id="Caminho_6648" data-name="Caminho 6648" d="M1781.674,7.144c5.755,1.181,4.669,6.068,4.669,6.068-4.839-1.084-4.549-3.782-4.669-6.068" transform="translate(-1152.15 415.605)" fill="#175732"/>
    </g>
  </g>
</svg>
