<svg xmlns="http://www.w3.org/2000/svg" xmlns:xlink="http://www.w3.org/1999/xlink" width="10.828" height="18.828" viewBox="0 0 10.828 18.828">
  <defs>
    <clipPath id="clip-path">
      <rect width="10.828" height="18.828" fill="none"/>
    </clipPath>
  </defs>
  <g id="Repetição_de_grade_1" data-name="Repetição de grade 1" clip-path="url(#clip-path)">
    <g transform="translate(1.334 1.254)">
      <line id="Linha_36" data-name="Linha 36" x1="8" y1="8" transform="translate(0.08 0.16)" fill="none" stroke="#2a5537" stroke-linecap="round" stroke-width="2"/>
      <line id="Linha_37" data-name="Linha 37" x1="8" y2="8" transform="translate(0.08 8.16)" fill="none" stroke="#2a5537" stroke-linecap="round" stroke-width="2"/>
    </g>
  </g>
</svg>
