<svg xmlns="http://www.w3.org/2000/svg" width="16" height="18.025" viewBox="0 0 16 18.025">
  <path id="Caminho_9172" data-name="Caminho 9172" d="M16.988,3H7A3.067,3.067,0,0,0,4,6.117V18.926a2,2,0,0,0,1.4,2A1.928,1.928,0,0,0,7.517,20.3l4.476-4,4.476,4a1.938,1.938,0,0,0,1.519.679,1.858,1.858,0,0,0,.609-.1,2,2,0,0,0,1.4-2V6.117A3.067,3.067,0,0,0,16.988,3Z" transform="translate(-3.998 -3)" fill="#f2f2f2"/>
</svg>
