<svg xmlns="http://www.w3.org/2000/svg" xmlns:xlink="http://www.w3.org/1999/xlink" width="21" height="21" viewBox="0 0 21 21">
  <defs>
    <clipPath id="clip-path">
      <rect id="Retângulo_2073" data-name="Retângulo 2073" width="21" height="21" transform="translate(0 0)" fill="#fff" stroke="#fff" stroke-width="1"/>
    </clipPath>
  </defs>
  <g id="Grupo_8393" data-name="Grupo 8393" clip-path="url(#clip-path)">
    <path id="Caminho_6661" data-name="Caminho 6661" d="M25.986,0a5.25,5.25,0,1,1-5.25,5.25A5.25,5.25,0,0,1,25.986,0" transform="translate(-15.486 0)" fill="#fff"/>
    <path id="Caminho_6662" data-name="Caminho 6662" d="M21,57.2V53.72a2.74,2.74,0,0,0-1.05-2.1,14.317,14.317,0,0,0-5.119-2.494A14.992,14.992,0,0,0,10.5,48.47a16.517,16.517,0,0,0-4.331.656A16.885,16.885,0,0,0,1.05,51.62,2.74,2.74,0,0,0,0,53.72V57.2Z" transform="translate(0 -36.198)" fill="#fff"/>
  </g>
</svg>
