<svg xmlns="http://www.w3.org/2000/svg" width="21" height="21" viewBox="0 0 21 21">
  <path id="_8665201_circle_check_icon" data-name="8665201_circle_check_icon" d="M10.5,0A10.5,10.5,0,1,0,21,10.5,10.5,10.5,0,0,0,10.5,0Zm4.75,8.687L10,13.937a1.15,1.15,0,0,1-1.625,0L5.75,11.313A1.149,1.149,0,0,1,7.375,9.687L9.188,11.5l4.438-4.438A1.148,1.148,0,1,1,15.25,8.687Z" fill="#fff"/>
</svg>
