<svg xmlns="http://www.w3.org/2000/svg" width="26" height="19.5" viewBox="0 0 26 19.5">
  <g id="icons" transform="translate(0 -3)">
    <path id="email" d="M21.667,3H4.333A4.346,4.346,0,0,0,0,7.333V18.167A4.346,4.346,0,0,0,4.333,22.5H21.667A4.346,4.346,0,0,0,26,18.167V7.333A4.346,4.346,0,0,0,21.667,3ZM23.4,9.283l-8.558,5.742A3.652,3.652,0,0,1,13,15.567a3.652,3.652,0,0,1-1.842-.542L2.6,9.283a1.146,1.146,0,0,1-.217-1.517A1.146,1.146,0,0,1,3.9,7.55l8.558,5.742a1.174,1.174,0,0,0,1.192,0L22.208,7.55a1.066,1.066,0,0,1,1.517.325A1.182,1.182,0,0,1,23.4,9.283Z" fill="#175732"/>
  </g>
</svg>
