<svg xmlns="http://www.w3.org/2000/svg" width="19.38" height="18.572" viewBox="0 0 19.38 18.572">
  <path id="Caminho_6646" data-name="Caminho 6646" d="M1062.065,7.144a2.422,2.422,0,0,0-2.422,2.422v9.69a2.423,2.423,0,0,0,2.422,2.423h3.028a1.212,1.212,0,0,1,.969.484l2.3,3.068a1.211,1.211,0,0,0,1.938,0l2.3-3.068a1.211,1.211,0,0,1,.969-.484h3.028a2.423,2.423,0,0,0,2.422-2.423V9.566a2.422,2.422,0,0,0-2.422-2.422Zm7.268,4.836c2.015-2.072,7.055,1.554,0,6.216-7.056-4.663-2.016-8.289,0-6.216" transform="translate(-1059.643 -7.144)" fill="#175732"/>
</svg>
