<svg xmlns="http://www.w3.org/2000/svg" width="17.021" height="19" viewBox="0 0 17.021 19">
  <g id="Grupo_8393" data-name="Grupo 8393" transform="translate(-101 -42)">
    <path id="Caminho_6661" data-name="Caminho 6661" d="M1.445,19A1.473,1.473,0,0,1,0,17.5V1.5A1.473,1.473,0,0,1,1.445,0,1.473,1.473,0,0,1,2.89,1.5v16A1.473,1.473,0,0,1,1.445,19" transform="translate(101 42)" fill="#175732"/>
    <path id="Caminho_6662" data-name="Caminho 6662" d="M16.112,19a1.473,1.473,0,0,1-1.445-1.5V1.5a1.446,1.446,0,1,1,2.89,0v16A1.473,1.473,0,0,1,16.112,19" transform="translate(100.464 42)" fill="#175732"/>
    <rect id="Retângulo_2075" data-name="Retângulo 2075" width="17.021" height="19" transform="translate(101 42)" fill="none"/>
  </g>
</svg>
